Lab 06: Taming data
…
#
actives_tbl <-
  #
  readtext(
    file = "../data/original/actives/*.run", #
    docvarsfrom = "filenames", #
    docvarnames = doc_vars, #
    verbosity = 0 #
  ) |>
  as_tibble() #

#
actives_tbl

# A tibble: 430 × 9
   doc_id                     text  lang  country  year title type  genre imdbid
   <chr>                      <chr> <chr> <chr>   <int> <chr> <chr> <chr>  <int>
 1 es_Argentina_1950_Esposa-… "No … es    Argent…  1950 Espo… movie n     199500
 2 es_Argentina_1952_No-abra… "ALG… es    Argent…  1952 No-a… movie Myst… 184782
 3 es_Argentina_1955_El-amor… "Hab… es    Argent…  1955 El-a… movie Drama  47823
 4 es_Argentina_1965_Ocurrid… "Suc… es    Argent…  1965 Ocur… movie Docu… 282622
 5 es_Argentina_1969_La-veng… "10 … es    Argent…  1969 La-v… movie Horr…  62433
 6 es_Argentina_1973_Juan-Mo… "Y p… es    Argent…  1973 Juan… movie Adve…  70250
 7 es_Argentina_1975_Nazaren… "¡ J… es    Argent…  1975 Naza… movie Drama  71897
 8 es_Argentina_1977_Mastrop… "Ust… es    Argent…  1977 Mast… vide… Come… 333883
 9 es_Argentina_1979_Muchas-… "Mil… es    Argent…  1979 Much… vide… Come… 333954
10 es_Argentina_1980_Tiro-al… "Y ?… es    Argent…  1980 Tiro… movie Drama 175243
# ℹ 420 more rows

Tidy

#
actives_tbl <-
  actives_tbl |>
  mutate(
    doc_id = row_number() #
  )

#
actives_tbl

# A tibble: 430 × 9
   doc_id text                      lang  country  year title type  genre imdbid
    <int> <chr>                     <chr> <chr>   <int> <chr> <chr> <chr>  <int>
 1      1 "No está , señora . Aquí… es    Argent…  1950 Espo… movie n     199500
 2      2 "ALGUIEN AL TELÉFONO . L… es    Argent…  1952 No-a… movie Myst… 184782
 3      3 "Habrá que cumplir su úl… es    Argent…  1955 El-a… movie Drama  47823
 4      4 "Sucedió en Hualfin Esta… es    Argent…  1965 Ocur… movie Docu… 282622
 5      5 "10 secuestros en 10 día… es    Argent…  1969 La-v… movie Horr…  62433
 6      6 "Y preguntada que fue sí… es    Argent…  1973 Juan… movie Adve…  70250
 7      7 "¡ Jeremías ! ¡ Jeremías… es    Argent…  1975 Naza… movie Drama  71897
 8      8 "Usted . Usted que frecu… es    Argent…  1977 Mast… vide… Come… 333883
 9      9 "Miles de campanas nos t… es    Argent…  1979 Much… vide… Come… 333954
10     10 "Y ? Enseguida viene , f… es    Argent…  1980 Tiro… movie Drama 175243
# ℹ 420 more rows
…
